Statistics for Psychologists - 6. Introduction to Factorial Designs and Interactions
…
Efficacy: no efficacy message vs. efficacy message

This results in four different groups of participants. One group (N = 50) receives no fear appeal and no efficacy message. A second group (N = 50) receives the fear appeal but no efficacy message. A third group (N = 50) receives no fear appeal but does receive an efficacy message. A fourth group (N = 50) receives both the fear appeal and the efficacy message. All groups of participants then indicate their intention to vaccinate against COVID-19 using the vaccination intention measure described above. The four conditions are summarized in the table below.

![}(images/DataMatrix.png){width=75%}

First things first, let’s load the data set:

# Import the data
data = read_csv("data/fearVac.csv")
# View the data
(data)

# A tibble: 200 × 4
     Par Fear           Efficacy            Intention
   <dbl> <chr>          <chr>                   <dbl>
 1     1 No Fear Appeal No Efficacy Message         6
 2     2 No Fear Appeal No Efficacy Message         4
 3     3 No Fear Appeal No Efficacy Message         7
 4     4 No Fear Appeal No Efficacy Message         8
 5     5 No Fear Appeal No Efficacy Message         5
 6     6 No Fear Appeal No Efficacy Message         6
 7     7 No Fear Appeal No Efficacy Message         2
 8     8 No Fear Appeal No Efficacy Message         6
 9     9 No Fear Appeal No Efficacy Message         5
10    10 No Fear Appeal No Efficacy Message         3
# … with 190 more rows

Take a look at the table summarising the data. Beneath each variable name, R tells us the variable type. There is an issue here in that the variables Fear and Efficacy are designated as character variables <chr>. This simply means that they are represented as strings of text. However, we want these variables to be represented as factors <fct>. Furthermore, we want to re-order the levels of each factor, as R will otherwise represent these in alphabetical order, which is not what we want. For Fear, we want the levels to-be-ordered “no fear appeal” –> “fear appeal” and for Efficacy we want the levels to-be-ordered “no efficacy message” –> “efficacy message”. The next code will convert the variables into factors and re-order the levels:

# Convert Fear and Efficacy into factors and ensure "No Fear Appeal" is Level 1 of the Fear factor
# and "No Efficacy Message" is Level 1 of the Efficacy factor
data$Fear     = factor(data$Fear, levels = c("No Fear Appeal","Fear Appeal"))
data$Efficacy = factor(data$Efficacy, levels = c("No Efficacy Message","Efficacy Message"))

Right, lets take a look at our data set again:

(data)

# A tibble: 200 × 4
     Par Fear           Efficacy            Intention
   <dbl> <fct>          <fct>                   <dbl>
 1     1 No Fear Appeal No Efficacy Message         6
 2     2 No Fear Appeal No Efficacy Message         4
 3     3 No Fear Appeal No Efficacy Message         7
 4     4 No Fear Appeal No Efficacy Message         8
 5     5 No Fear Appeal No Efficacy Message         5
 6     6 No Fear Appeal No Efficacy Message         6
 7     7 No Fear Appeal No Efficacy Message         2
 8     8 No Fear Appeal No Efficacy Message         6
 9     9 No Fear Appeal No Efficacy Message         5
10    10 No Fear Appeal No Efficacy Message         3
# … with 190 more rows
…
