Statistics for Psychologists - 9. Three-Factor ANOVA
…
The next thing we need to do is convert our data from wide format into long format. The first thing we need to do is group the columns Recall_Under_Under through to Recognition_Land_Land into a new variable called Group using the gather() function:

# Gather factors into a single column
memoryContextLong = memoryContext %>%
  gather(Group,Accuracy,Recall_Under_Under:Recognition_Land_Land,factor_key = TRUE)
(memoryContextLong)

# A tibble: 40 × 3
   Participant Group              Accuracy
         <dbl> <fct>                 <dbl>
 1           1 Recall_Under_Under        8
 2           2 Recall_Under_Under        9
 3           3 Recall_Under_Under        7
 4           4 Recall_Under_Under        8
 5           5 Recall_Under_Under        6
 6           1 Recall_Under_Land         5
 7           2 Recall_Under_Land         6
 8           3 Recall_Under_Land         5
 9           4 Recall_Under_Land         4
10           5 Recall_Under_Land         3
# … with 30 more rows

This function was explained in the previous lab session, so if it is not clear what is going on here, check the Week 8 lab session materials.

Looking at the new data frame we have created, we can see that it is not exactly what we want. Our new variable Group actually contains three independent variables. What we want is to separate these independent variables into three separate columns: MemoryTask, LearningContext, and TestingContext. We can do that with the separate() function:

# Now separate the variable "Group" into separate columns for each factor
memoryContextLongSep = memoryContextLong %>%
  separate(Group, c("MemoryTask","LearningContext","TestingContext"))
(memoryContextLongSep)

# A tibble: 40 × 5
   Participant MemoryTask LearningContext TestingContext Accuracy
         <dbl> <chr>      <chr>           <chr>             <dbl>
 1           1 Recall     Under           Under                 8
 2           2 Recall     Under           Under                 9
 3           3 Recall     Under           Under                 7
 4           4 Recall     Under           Under                 8
 5           5 Recall     Under           Under                 6
 6           1 Recall     Under           Land                  5
 7           2 Recall     Under           Land                  6
 8           3 Recall     Under           Land                  5
 9           4 Recall     Under           Land                  4
10           5 Recall     Under           Land                  3
# … with 30 more rows
…
The next thing we need to do is convert our data from wide format into long format. The first thing we need to do is group the columns High_Regular through to Low_Irregular into a new variable called Group using the gather() function. We showed you how to do this in the earlier data set, so give this a go for yourself. Make sure that you name the dependent measure Errors and that you call your new data set wordPronLng.

# *** ENTER YOUR OWN CODE HERE TO GATHER THE WITHIN-PARTICIPANTS FACTORS INTO A COMMON GROUP ***

If you have executed your code correct, you should see the following output:

# A tibble: 40 × 4
   Participant Age         Group        Errors
         <dbl> <chr>       <fct>         <dbl>
 1           1 7 Year Olds High_Regular      6
 2           2 7 Year Olds High_Regular      7
 3           3 7 Year Olds High_Regular      5
 4           4 7 Year Olds High_Regular      6
 5           5 7 Year Olds High_Regular      6
 6           6 9 Year Olds High_Regular      4
 7           7 9 Year Olds High_Regular      3
 8           8 9 Year Olds High_Regular      4
 9           9 9 Year Olds High_Regular      5
10          10 9 Year Olds High_Regular      3
# … with 30 more rows

We have a new variable Group that contains our two independent variables, Frequency and Word Type, and a new variable Errors that contains our dependent measure. The next step is to use the separate() function to divide the variable Group into two new variables, one called Frequency and one called WordType. Again, we gave you an example of this earlier, so try your own code out for this bit. Just make sure you call your new data set wordPronLngSep.

# *** ENTER YOUR OWN CODE HERE TO SEPARATE "GROUP" INTO SEPARATE VARIABLES FOR "FREQUENCY" AND "WORDTYPE" ***

Assuming you have executed your code correctly, you should see the following output:

# A tibble: 40 × 5
   Participant Age         Frequency WordType Errors
         <dbl> <chr>       <chr>     <chr>     <dbl>
 1           1 7 Year Olds High      Regular       6
 2           2 7 Year Olds High      Regular       7
 3           3 7 Year Olds High      Regular       5
 4           4 7 Year Olds High      Regular       6
 5           5 7 Year Olds High      Regular       6
 6           6 9 Year Olds High      Regular       4
 7           7 9 Year Olds High      Regular       3
 8           8 9 Year Olds High      Regular       4
 9           9 9 Year Olds High      Regular       5
10          10 9 Year Olds High      Regular       3
# … with 30 more rows
…
