Statistics for Psychologists - 7. Two-Factor Between-Participants ANOVA
…
Par: represents the participant number, which ranges from 1–200, with \(N\) = 50 participants in each of the four conditions resulting from the combination of our two factors, described next.

Fear: represents whether the participant indicated by the row received (Fear Appeal) or did not receive (No Fear Appeal) the fear appeal.

Efficacy: represents whether the participant indicated by the row received (Efficacy Message) or did not receive (No Efficacy Message) the self-efficacy message.

Likelihood: represents the vaccination likelihood score of the participant indicated by the row.

The first thing you need to do is load the data into RStudio. Make sure that you name your data frame as covid19Data. Once you have done this, you need to re-level the factors Fear and Efficacy so that “No Fear Appeal” is the baseline level for the former factor, and “No Efficacy Message” is the baseline level for the latter factor. We showed you how to do this in the Week 6 lab session.

# *** ENTER YOUR OWN CODE HERE IMPORTING THE DATA AND RE-LEVELLING THE FACTORS ***

Once you have done the above, type (covid19Data) into the console to view the first 10 rows of the data. We want to check that the columns for Fear and Efficacy have the labels <fct> beneath them. This means that R has stored these variables as factors, which is necessary for us to perform the ANOVA. By default, R will import these variables as characters, in which case the variables would have the labels <chr> beneath them. If that is the case for your data, then you will need to modify this before proceeding further.

# A tibble: 200 × 4
     Par Fear           Efficacy            Likelihood
   <dbl> <fct>          <fct>                    <dbl>
 1     1 No Fear Appeal No Efficacy Message          6
 2     2 No Fear Appeal No Efficacy Message          4
 3     3 No Fear Appeal No Efficacy Message          7
 4     4 No Fear Appeal No Efficacy Message          8
 5     5 No Fear Appeal No Efficacy Message          5
 6     6 No Fear Appeal No Efficacy Message          6
 7     7 No Fear Appeal No Efficacy Message          2
 8     8 No Fear Appeal No Efficacy Message          6
 9     9 No Fear Appeal No Efficacy Message          5
10    10 No Fear Appeal No Efficacy Message          3
# … with 190 more rows
…
