Statistics for Psychologists - 5. Revision of One-Factor ANOVA
…
The researcher wants to know whether (a) grouping study lists improves verbal recall accuracy compared to an ungrouped scenario, and (b) whether the degree of improvement depends on the type of grouping used (grouping in twos \(vs.\) grouping in threes). The researcher has chosen to run the study as a between-participants design rather than a within-participants design because she is worried about the possibility of carryover effects. Specifically, if the study was run as a within-participants design there is a risk that participants may carry over a grouping strategy from one condtion into another condition. For example, having completed the 3-3 condition, participants may then spontaneously group the ungrouped lists in the ungrouped condition into threes. This would make interpretation of the results of the experiment difficult, hence the decision to use a between-participants design.

The researcher has two hypotheses she wants to test. Specifically, she predicts that (1) verbal recall accuracy will be higher in the 2-2-2 condition than in the ungrouped condition, and (2) that verbal recall accuracy will be higher, in turn, in the 3-3 condition than in the 2-2-2 condition. She has thus decided a priori to conduct planned comparisons comparing accuracy for the ungrouped vs. 2-2-2 conditions, and the 2-2-2 vs. 3-3 conditions.

First things first, let’s load the data set:

# Import the data
groupingData = read_csv("data/Grouping.csv")
# Make sure Condition is a factor with levels ordered: ungrouped, 2-2-2, 3-3
groupingData$Condition = factor(groupingData$Condition, levels = c("Ungrouped","2-2-2","3-3"))
# Print the data
(groupingData)

# A tibble: 90 × 3
   Participant Condition Accuracy
         <dbl> <fct>        <dbl>
 1           1 Ungrouped     62.7
 2           2 Ungrouped     53.7
 3           3 Ungrouped     68.7
 4           4 Ungrouped     77.3
 5           5 Ungrouped     60.2
 6           6 Ungrouped     63.7
 7           7 Ungrouped     46.9
 8           8 Ungrouped     67.4
 9           9 Ungrouped     60.4
10          10 Ungrouped     49.5
# … with 80 more rows
…
First things first, let’s load the data set:

# *** ENTER YOUR OWN CODE HERE FOR IMPORTING THE DATA. MAKE SURE YOU NAME THE DATA "wLengthData" ***

We have four columns: Participant (the participant number ranging from 1 to 75), Short_Words (percentage of list items recalled in the correct order for the short word condition), Medium_Words (percentage of list items recalled in the correct order for the medium word condition), and Long_Words (percentage of list items recalled in the correct order for the long word condition). The data are therefore in so-called “wide format” (Richard discussed the distinction between wide format and long format in the last practical session)—each repeated measurement (short words, medium words, long words) has its own column and contains the values of the dependent variable for that measurement. Whenever we use repeated measurements, that is, when we employ a within-participants design, the resulting data is stored in wide format.

However, as Richard told you in your Week 4 lab session, to analyse such data in R, we first need to convert the data from wide format into long format. We can do this using the following piece of code:

# This gathers the data in Short_Words, Medium_Words, and Long_Words within the data frame "wLengthData" and reorganises them into two columns, Condition (containing the three levels of our repeated measurement) and Accuracy (verbal recall accuracy), before assigning them to a new data frame "wLengthDataLong". The argument factor_key = TRUE ensures that the new column Condition is treated as a factor. 
wLengthDataLong = gather(wLengthData,Condition,Accuracy,Short_Words:Long_Words,factor_key = TRUE)
# Print the data
(wLengthDataLong) 

# A tibble: 225 × 3
   Participant Condition   Accuracy
         <dbl> <fct>          <dbl>
 1           1 Short_Words     79.8
 2           2 Short_Words     69.0
 3           3 Short_Words     87.0
 4           4 Short_Words     97.3
 5           5 Short_Words     76.9
 6           6 Short_Words     81.0
 7           7 Short_Words     60.9
 8           8 Short_Words     85.5
 9           9 Short_Words     77.1
10          10 Short_Words     64.0
# … with 215 more rows
…
