Statistics for Psychologists - 2. Multiple regression including categorical predictors
…
Checking that assumptions of linear regression are not violated

We can collect some diagnostic measures to help with assumption checking using the augment() function from the broom package:

(m6zh_metrics <- augment(m6_zh))

# A tibble: 1,338 × 13
   charges age_z1 bmi_z1 childr…¹  sex_c smoke…² regio…³ .fitted  .resid    .hat
     <dbl>  <dbl>  <dbl> <fct>     <dbl>   <dbl> <fct>     <dbl>   <dbl>   <dbl>
 1  16885. -1.44  -0.453 0         0.505   0.795 SW       25243. -8358.  0.00967
 2   1726. -1.51   0.509 1        -0.495  -0.205 SE        3309. -1584.  0.00772
 3   4449. -0.798  0.383 3        -0.495  -0.205 SE        6195. -1746.  0.0105 
 4  21984. -0.442 -1.31  0        -0.495  -0.205 NW        3702. 18283.  0.00616
 5   3867. -0.513 -0.292 0        -0.495  -0.205 NW        5525. -1658.  0.00529
 6   3757. -0.584 -0.807 0         0.505  -0.205 SE        3685.    71.9 0.00604
 7   8241.  0.483  0.455 1         0.505  -0.205 SE       10528. -2287.  0.00614
 8   7282. -0.157 -0.479 3         0.505  -0.205 NW        7519.  -238.  0.00947
 9   6406. -0.157 -0.137 2        -0.495  -0.205 NE        9147. -2740.  0.00779
10  28923.  1.48  -0.791 0         0.505  -0.205 NW       11830. 17093.  0.00705
# … with 1,328 more rows, 3 more variables: .sigma <dbl>, .cooksd <dbl>,
#   .std.resid <dbl>, and abbreviated variable names ¹​children_h, ²​smoker_c,
#   ³​regionsum
…
